\relax 
\providecommand\hyper@newdestlabel[2]{}
\providecommand\HyperFirstAtBeginDocument{\AtBeginDocument}
\HyperFirstAtBeginDocument{\ifx\hyper@anchor\@undefined
\global\let\oldcontentsline\contentsline
\gdef\contentsline#1#2#3#4{\oldcontentsline{#1}{#2}{#3}}
\global\let\oldnewlabel\newlabel
\gdef\newlabel#1#2{\newlabelxx{#1}#2}
\gdef\newlabelxx#1#2#3#4#5#6{\oldnewlabel{#1}{{#2}{#3}}}
\AtEndDocument{\ifx\hyper@anchor\@undefined
\let\contentsline\oldcontentsline
\let\newlabel\oldnewlabel
\fi}
\fi}
\global\let\hyper@last\relax 
\gdef\HyperFirstAtBeginDocument#1{#1}
\providecommand\HyField@AuxAddToFields[1]{}
\providecommand\HyField@AuxAddToCoFields[2]{}
\citation{acl2s11}
\citation{gradescope}
\citation{tocmodels}
\@writefile{toc}{\contentsline {section}{\numberline {1}Introduction}{1}{section.1}\protected@file@percent }
\@writefile{toc}{\contentsline {section}{\numberline {2}Illustrative Example}{1}{section.2}\protected@file@percent }
\citation{acl2s11}
\citation{acl2swebpage}
\citation{car}
\citation{acl2webpage}
\citation{tocbook}
\@writefile{toc}{\contentsline {section}{\numberline {3}Tool Architecture}{3}{section.3}\protected@file@percent }
\@writefile{toc}{\contentsline {subsection}{\numberline {3.1}Solution format}{3}{subsection.3.1}\protected@file@percent }
\@writefile{toc}{\contentsline {subsection}{\numberline {3.2}Validating automata}{3}{subsection.3.2}\protected@file@percent }
\@writefile{toc}{\contentsline {subsection}{\numberline {3.3}Evaluating student constructions}{3}{subsection.3.3}\protected@file@percent }
\citation{acl2simage}
\citation{gradescope}
\citation{alur2013automated}
\citation{dantoni2015how}
\citation{automatatutorv3}
\@writefile{toc}{\contentsline {section}{\numberline {4}Autograding Assignments}{4}{section.4}\protected@file@percent }
\@writefile{toc}{\contentsline {subsection}{\numberline {4.1}Packaging an executable}{4}{subsection.4.1}\protected@file@percent }
\@writefile{toc}{\contentsline {subsection}{\numberline {4.2}Autograding assignments on Gradescope}{4}{subsection.4.2}\protected@file@percent }
\@writefile{toc}{\contentsline {section}{\numberline {5}Effectiveness}{4}{section.5}\protected@file@percent }
\@writefile{toc}{\contentsline {section}{\numberline {6}Related work}{4}{section.6}\protected@file@percent }
\citation{*}
\bibstyle{splncs04}
\bibdata{refs.bib}
\bibcite{acl2webpage}{1}
\bibcite{acl2simage}{2}
\bibcite{acl2swebpage}{3}
\bibcite{tocmodels}{4}
\bibcite{gradescope}{5}
\bibcite{alur2013automated}{6}
\bibcite{acl2s11}{7}
\bibcite{automatatutorv3}{8}
\bibcite{DillingerMVM07}{9}
\bibcite{dantoni2015how}{10}
\bibcite{car}{11}
\bibcite{tocbook}{12}
\@writefile{toc}{\contentsline {section}{\numberline {7}Conclusion and Future work}{5}{section.7}\protected@file@percent }
\newlabel{LastPage}{{}{5}{}{page.5}{}}
\xdef\lastpage@lastpage{5}
\xdef\lastpage@lastpageHy{5}
\gdef \@abspage@last{5}
